Working with tabular data in R
…
── Conflicts ────────────────────────────────────────── tidyverse_conflicts() ──
✖ dplyr::filter() masks stats::filter()
✖ dplyr::lag()    masks stats::lag()

Several packages get loaded; we’ll be using functions from many of
these.

The tidyverse also comes with some built-in data sets that are mainly
used to demonstrate how functions work in example code given in the help
documentation. One of these is the mpg data set containing
fuel economy data for popular models of cars.

mpg

# A tibble: 234 × 11
   manufacturer model      displ  year   cyl trans drv     cty   hwy fl    class
   <chr>        <chr>      <dbl> <int> <int> <chr> <chr> <int> <int> <chr> <chr>
 1 audi         a4           1.8  1999     4 auto… f        18    29 p     comp…
 2 audi         a4           1.8  1999     4 manu… f        21    29 p     comp…
 3 audi         a4           2    2008     4 manu… f        20    31 p     comp…
 4 audi         a4           2    2008     4 auto… f        21    30 p     comp…
 5 audi         a4           2.8  1999     6 auto… f        16    26 p     comp…
 6 audi         a4           2.8  1999     6 manu… f        18    26 p     comp…
 7 audi         a4           3.1  2008     6 auto… f        18    27 p     comp…
 8 audi         a4 quattro   1.8  1999     4 manu… 4        18    26 p     comp…
 9 audi         a4 quattro   1.8  1999     4 auto… 4        16    25 p     comp…
10 audi         a4 quattro   2    2008     4 manu… 4        20    28 p     comp…
# … with 224 more rows
…
current_responses <- read_csv("current_responses.csv")

Rows: 135 Columns: 4
── Column specification ────────────────────────────────────────────────────────
Delimiter: ","
chr (2): id, group
dbl (2): voltage, current

ℹ Use `spec()` to retrieve the full column specification for this data.
ℹ Specify the column types or set `show_col_types = FALSE` to quiet this message.

current_responses

# A tibble: 135 × 4
   id       group       voltage current
   <chr>    <chr>         <dbl>   <dbl>
 1 061412c2 Control         -80 -14.0  
 2 061412c1 Control         -80 -27.1  
 3 052512n3 Control         -80  -8.65 
 4 060512n2 Control         -80  -8.62 
 5 050212c1 Control         -80 -28.8  
 6 051712n1 Nalcn_shRNA     -80  -1.64 
 7 061312c2 Nalcn_shRNA     -80  -9.33 
 8 061312c1 Nalcn_shRNA     -80   2.95 
 9 061212c1 Nalcn_shRNA     -80  -0.682
10 050312c1 Nalcn_shRNA     -80  -4.17 
# … with 125 more rows
…
mean(current_responses$current)

[1] 1.287191

Slicing and dicing

filter()

We’ll filter our table so it just contains the rows for control
samples.

control_responses <- filter(current_responses, group == "Control")
control_responses

# A tibble: 45 × 4
   id       group   voltage current
   <chr>    <chr>     <dbl>   <dbl>
 1 061412c2 Control     -80  -14.0 
 2 061412c1 Control     -80  -27.1 
 3 052512n3 Control     -80   -8.65
 4 060512n2 Control     -80   -8.62
 5 050212c1 Control     -80  -28.8 
 6 061412c2 Control     -60  -10.2 
 7 061412c1 Control     -60  -22.3 
 8 052512n3 Control     -60   -5.18
 9 060512n2 Control     -60   -5.29
10 050212c1 Control     -60  -21.1 
# … with 35 more rows
…
mean(control_minus_80_responses$current)

[1] -17.43598

select()

You can also select a subset of columns you’re interested in.

control_minus_80_responses <- select(control_responses, id, voltage, current)
control_minus_80_responses

# A tibble: 45 × 3
   id       voltage current
   <chr>      <dbl>   <dbl>
 1 061412c2     -80  -14.0 
 2 061412c1     -80  -27.1 
 3 052512n3     -80   -8.65
 4 060512n2     -80   -8.62
 5 050212c1     -80  -28.8 
 6 061412c2     -60  -10.2 
 7 061412c1     -60  -22.3 
 8 052512n3     -60   -5.18
 9 060512n2     -60   -5.29
10 050212c1     -60  -21.1 
# … with 35 more rows
…
And we can group by more than one variable, so returning to our
original, unfiltered table:

summary <- current_responses %>%
  group_by(group, voltage) %>%
  summarize(Current = mean(current), SD = sd(current), N = n())

`summarise()` has grouped output by 'group'. You can override using the
`.groups` argument.

summary

# A tibble: 27 × 5
# Groups:   group [3]
   group      voltage  Current     SD     N
   <chr>        <dbl>    <dbl>  <dbl> <int>
 1 Control        -80 -17.4     9.85      5
 2 Control        -60 -12.8     8.35      5
 3 Control        -40  -8.64    6.24      5
 4 Control        -20  -5.22    4.63      5
 5 Control          0  -0.0117  0.804     5
 6 Control         20   4.46    3.90      5
 7 Control         40   9.61    4.74      5
 8 Control         60  16.1     8.21      5
 9 Control         80  22.7     8.72      5
10 NALCN_cDNA     -80 -24.0    30.2       5
# … with 17 more rows
Modifying a table

The source data contains values for the mean current density and also
the standard error. We’ve calculated the standard deviation and so we
can calculate the standard error by dividing through by the square root
of the number of values, or replicates in our case.

mutate()

The mutate() lets us add new variables
(columns) to a table or modify existing ones.

mutate(summary, SE = SD /sqrt(N))  

# A tibble: 27 × 6
# Groups:   group [3]
   group      voltage  Current     SD     N     SE
   <chr>        <dbl>    <dbl>  <dbl> <int>  <dbl>
 1 Control        -80 -17.4     9.85      5  4.41 
 2 Control        -60 -12.8     8.35      5  3.73 
 3 Control        -40  -8.64    6.24      5  2.79 
 4 Control        -20  -5.22    4.63      5  2.07 
 5 Control          0  -0.0117  0.804     5  0.360
 6 Control         20   4.46    3.90      5  1.74 
 7 Control         40   9.61    4.74      5  2.12 
 8 Control         60  16.1     8.21      5  3.67 
 9 Control         80  22.7     8.72      5  3.90 
10 NALCN_cDNA     -80 -24.0    30.2       5 13.5  
# … with 17 more rows
rename()

We’ll put it all together in a single workflow and use the
rename() function to rename a couple of
columns so the result has consistent column naming (capitilization).

summary <- current_responses %>%
  group_by(group, voltage) %>%
  summarize(Current = mean(current), N = n(), SD = sd(current), .groups = "drop") %>%
  mutate(SE = SD /sqrt(N)) %>%
  rename(Group = group, Voltage = voltage) %>%
  select(-SD)
summary

# A tibble: 27 × 5
   Group      Voltage  Current     N     SE
   <chr>        <dbl>    <dbl> <int>  <dbl>
 1 Control        -80 -17.4        5  4.41 
 2 Control        -60 -12.8        5  3.73 
 3 Control        -40  -8.64       5  2.79 
 4 Control        -20  -5.22       5  2.07 
 5 Control          0  -0.0117     5  0.360
 6 Control         20   4.46       5  1.74 
 7 Control         40   9.61       5  2.12 
 8 Control         60  16.1        5  3.67 
 9 Control         80  22.7        5  3.90 
10 NALCN_cDNA     -80 -24.0        5 13.5  
# … with 17 more rows
